<?xml version="1.0" encoding="iso-8859-1"?>
<!-- Generator: Adobe Illustrator 22.0.1, SVG Export Plug-In . SVG Version: 6.00 Build 0)  -->
<svg version="1.1" id="Layer_1" xmlns="http://www.w3.org/2000/svg" xmlns:xlink="http://www.w3.org/1999/xlink" x="0px" y="0px"
	 viewBox="0 0 16.006 11.963" style="enable-background:new 0 0 16.006 11.963;" xml:space="preserve">
<path style="fill:#00a693;" d="M0.129,5.961l0.87-0.926c0.192-0.205,0.53-0.19,0.753,0.033l5.064,5.044
	c0.224,0.223,0.249,0.569,0.057,0.774l-0.87,0.926c-0.192,0.205-0.53,0.19-0.753-0.033L0.186,6.735
	C-0.038,6.512-0.063,6.166,0.129,5.961z"/>
<path style="fill:#00a693;" d="M15.863,1.003l-0.908-0.875c-0.201-0.193-0.538-0.164-0.753,0.065L4.431,10.196
	c-0.215,0.229-0.227,0.571-0.027,0.764l0.908,0.875c0.201,0.193,0.538,0.164,0.753-0.064l9.771-10.003
	C16.052,1.538,16.064,1.196,15.863,1.003z"/>
</svg>
