<?xml version="1.0" encoding="iso-8859-1"?>
<!-- Generator: Adobe Illustrator 22.0.1, SVG Export Plug-In . SVG Version: 6.00 Build 0)  -->
<svg version="1.1" id="Layer_1" xmlns="http://www.w3.org/2000/svg" xmlns:xlink="http://www.w3.org/1999/xlink" x="0px" y="0px"
	 viewBox="0 0 8.006 5" style="enable-background:new 0 0 8.006 5;" xml:space="preserve">
<path style="fill:#fff;" d="M4.003,0L0,5h8.006L4.003,0z"/>
</svg>
