<?xml version="1.0" encoding="iso-8859-1"?>
<!-- Generator: Adobe Illustrator 22.0.1, SVG Export Plug-In . SVG Version: 6.00 Build 0)  -->
<svg version="1.1" id="Layer_1" xmlns="http://www.w3.org/2000/svg" xmlns:xlink="http://www.w3.org/1999/xlink" x="0px" y="0px"
	 viewBox="0 0 6.996 12.023" style="enable-background:new 0 0 6.996 12.023;" xml:space="preserve">
<path style="fill:#00a693;" d="M0.109,1.362c-0.145-0.143-0.145-0.285,0-0.427l0.817-0.828c0.145-0.142,0.291-0.142,0.436,0
	l5.553,5.691c0.055,0.054,0.082,0.125,0.082,0.214c0,0.089-0.027,0.16-0.082,0.214l-5.553,5.691c-0.145,0.142-0.29,0.142-0.436,0
	l-0.817-0.828c-0.145-0.143-0.145-0.285,0-0.428l4.546-4.649l0,0L0.109,1.362z"/>
</svg>
