<?xml version="1.0" encoding="iso-8859-1"?>
<!-- Generator: Adobe Illustrator 22.0.1, SVG Export Plug-In . SVG Version: 6.00 Build 0)  -->
<svg version="1.1" id="Layer_1" xmlns="http://www.w3.org/2000/svg" xmlns:xlink="http://www.w3.org/1999/xlink" x="0px" y="0px"
	 viewBox="0 0 18 16.995" style="enable-background:new 0 0 18 16.995;" xml:space="preserve">
<path style="fill:#7AA7A1;" d="M17.417,7.086c-0.389-0.392-0.861-0.588-1.416-0.588c-0.569,0-1.048,0.204-1.436,0.613
	C13.098,6.1,11.361,5.565,9.352,5.504l1.045-4.741l3.355,0.743c0,0.415,0.146,0.768,0.437,1.06s0.644,0.437,1.06,0.437
	c0.415,0,0.77-0.147,1.065-0.442c0.295-0.295,0.442-0.65,0.442-1.065s-0.147-0.768-0.442-1.06C16.018,0.146,15.663,0,15.248,0
	c-0.288,0-0.553,0.075-0.794,0.226s-0.422,0.35-0.542,0.598L10.205,0.01c-0.094-0.02-0.181-0.003-0.261,0.05
	c-0.08,0.054-0.131,0.124-0.151,0.211L8.628,5.504C6.64,5.571,4.915,6.114,3.455,7.132C3.054,6.71,2.568,6.499,1.999,6.499
	c-0.556,0-1.028,0.196-1.416,0.588C0.194,7.478,0,7.949,0,8.498c0,0.389,0.104,0.745,0.311,1.07
	c0.207,0.325,0.482,0.571,0.824,0.738c-0.074,0.315-0.11,0.63-0.11,0.944c0,1.038,0.357,1.999,1.07,2.883
	c0.713,0.884,1.684,1.582,2.913,2.094c1.229,0.512,2.566,0.768,4.013,0.768c1.446,0,2.786-0.256,4.018-0.768
	c1.232-0.512,2.205-1.21,2.918-2.094c0.713-0.884,1.07-1.845,1.07-2.883c0-0.335-0.04-0.656-0.121-0.964
	c0.335-0.167,0.601-0.41,0.799-0.728C17.901,9.24,18,8.886,18,8.498C18,7.949,17.806,7.478,17.417,7.086z M4.641,9.442
	C4.935,9.147,5.287,9,5.695,9C6.11,9,6.465,9.146,6.76,9.437c0.295,0.291,0.442,0.645,0.442,1.06c0,0.415-0.147,0.77-0.442,1.065
	c-0.295,0.295-0.65,0.442-1.065,0.442c-0.415,0-0.768-0.147-1.06-0.442c-0.291-0.295-0.437-0.649-0.437-1.065
	C4.199,10.088,4.346,9.737,4.641,9.442z M11.145,14.745c-0.506,0.167-0.916,0.266-1.231,0.296C9.599,15.072,9.295,15.087,9,15.087
	c-0.295,0-0.599-0.015-0.914-0.045c-0.315-0.03-0.725-0.129-1.23-0.296c-0.506-0.167-0.902-0.395-1.19-0.683
	c-0.074-0.074-0.11-0.162-0.11-0.266c0-0.104,0.037-0.189,0.11-0.256c0.067-0.067,0.151-0.1,0.251-0.1
	c0.101,0,0.188,0.034,0.261,0.1c0.274,0.281,0.68,0.489,1.215,0.623C7.929,14.297,8.464,14.364,9,14.364s1.071-0.067,1.607-0.201
	c0.536-0.134,0.941-0.342,1.215-0.623c0.074-0.067,0.161-0.1,0.261-0.1c0.1,0,0.184,0.034,0.251,0.1
	c0.074,0.074,0.11,0.161,0.11,0.261c0,0.1-0.037,0.188-0.11,0.261C12.047,14.351,11.65,14.578,11.145,14.745z M10.798,10.497
	c0-0.415,0.147-0.768,0.442-1.06C11.535,9.146,11.889,9,12.305,9c0.408,0,0.76,0.147,1.055,0.442
	c0.295,0.295,0.442,0.646,0.442,1.055c0,0.415-0.146,0.77-0.437,1.065c-0.291,0.295-0.645,0.442-1.06,0.442
	c-0.415,0-0.77-0.147-1.065-0.442C10.945,11.267,10.798,10.912,10.798,10.497z"/>
</svg>
