<?xml version="1.0" encoding="iso-8859-1"?>
<!-- Generator: Adobe Illustrator 22.0.1, SVG Export Plug-In . SVG Version: 6.00 Build 0)  -->
<svg version="1.1" id="Layer_1" xmlns="http://www.w3.org/2000/svg" xmlns:xlink="http://www.w3.org/1999/xlink" x="0px" y="0px"
	 viewBox="0 0 16.714 16.714" style="enable-background:new 0 0 16.714 16.714;" xml:space="preserve">
<path style="fill:#00a693;" d="M7.071,11.571c-1.239,0-2.299-0.44-3.179-1.321C3.012,9.37,2.571,8.31,2.571,7.071
	c0-1.239,0.44-2.299,1.321-3.179c0.881-0.881,1.94-1.321,3.179-1.321c1.239,0,2.299,0.44,3.179,1.321
	c0.88,0.881,1.321,1.94,1.321,3.179c0,1.239-0.44,2.299-1.321,3.179C9.37,11.131,8.31,11.571,7.071,11.571z M16.343,14.525
	l-3.445-3.445c0.83-1.198,1.245-2.535,1.245-4.008c0-0.957-0.186-1.873-0.557-2.747c-0.372-0.874-0.874-1.627-1.507-2.26
	c-0.633-0.633-1.386-1.135-2.26-1.507C8.945,0.186,8.029,0,7.071,0C6.114,0,5.198,0.186,4.324,0.558
	C3.45,0.929,2.697,1.431,2.064,2.064S0.929,3.45,0.558,4.324C0.186,5.198,0,6.114,0,7.071c0,0.958,0.186,1.873,0.558,2.747
	c0.372,0.874,0.874,1.627,1.507,2.26c0.633,0.633,1.386,1.135,2.26,1.507s1.79,0.557,2.747,0.557c1.473,0,2.809-0.415,4.008-1.245
	l3.445,3.435c0.241,0.254,0.542,0.382,0.904,0.382c0.348,0,0.649-0.127,0.904-0.382c0.254-0.254,0.382-0.556,0.382-0.904
	C16.714,15.074,16.59,14.772,16.343,14.525L16.343,14.525z"/>
</svg>
