<?xml version="1.0" standalone="no"?>
<!DOCTYPE svg PUBLIC "-//W3C//DTD SVG 20010904//EN"
 "http://www.w3.org/TR/2001/REC-SVG-20010904/DTD/svg10.dtd">
<svg version="1.0" xmlns="http://www.w3.org/2000/svg"
 width="228.000000pt" height="228.000000pt" viewBox="0 0 228.000000 228.000000"
 preserveAspectRatio="xMidYMid meet">
<metadata>
Created by potrace 1.11, written by Peter Selinger 2001-2013
</metadata>
<g transform="translate(0.000000,228.000000) scale(0.100000,-0.100000)"
fill="#000000" stroke="none">
<path d="M1140 1961 l0 -240 177 -126 176 -125 89 0 88 0 0 178 0 177 -207
147 c-115 80 -234 165 -265 188 l-58 41 0 -240z"/>
<path d="M1750 1621 l0 -151 217 0 c125 0 213 4 207 9 -5 5 -47 35 -94 66 -47
32 -140 96 -207 142 l-123 84 0 -150z"/>
<path d="M60 1396 c0 -3 44 -35 246 -176 51 -36 132 -93 181 -127 48 -34 124
-87 168 -117 l80 -56 198 0 197 0 0 38 c1 69 1 367 1 405 l-1 37 -535 0 c-294
0 -535 -2 -535 -4z"/>
<path d="M1200 1160 l0 -240 540 0 540 0 0 240 0 240 -540 0 -540 0 0 -240z"/>
<path d="M0 1113 l0 -240 264 -185 265 -186 3 47 c2 25 2 132 0 238 l-3 192
-182 127 c-100 70 -204 143 -232 162 -27 20 -65 46 -82 60 l-33 24 0 -239z"/>
<path d="M600 693 c0 -213 2 -237 18 -250 15 -12 301 -215 355 -253 12 -8 52
-36 90 -62 l67 -48 0 239 0 238 -137 97 c-76 53 -147 102 -158 110 -11 8 -68
49 -127 90 l-108 75 0 -236z"/>
</g>
</svg>
